
Family: binomial 
Link function: logit 

Formula:
isCanopy ~ isCliff + isBank + isPark * neigh + landuse * neigh + 
    s(popPerHa)

Parametric coefficients:
                                                                                                  Estimate
(Intercept)                                                                                     -3.156e+00
isCliffTRUE                                                                                      2.047e+00
isBankTRUE                                                                                       2.426e-01
isPark1                                                                                          2.313e+00
neighMaizerets                                                                                   2.841e-01
neighMontcalm                                                                                    1.463e+00
neighSaint-Jean-Baptiste                                                                        -4.015e-01
neighSaint-Roch                                                                                 -6.128e-01
neighSaint-Sacrement                                                                             8.726e-01
neighSaint-Sauveur                                                                               6.752e-01
neighVieux-Limoilou                                                                              6.168e-01
neighVieux-Québec/Cap-Blanc/Colline parlementaire                                                6.076e-01
landuseCommerce de gros et entreposage                                                          -6.002e-01
landuseCommerce de vente au detail                                                              -1.799e-01
landuseIndustriel                                                                                4.970e-01
landuseInstitutionnel                                                                            1.164e+00
landuseLoisir et culture                                                                         5.115e-01
landuseMixite residentielle et administration                                                   -2.055e+01
landuseMixite residentielle et commerciale                                                      -6.375e-01
landuseParc et espace vert                                                                       3.511e+00
landuseReseau et equipement de transport                                                         2.423e+00
landuseResidentiel faible densite                                                                2.147e+00
landuseResidentiel haute densite                                                                 9.664e-01
landuseResidentiel moyenne densite                                                               1.402e+00
landuseService d'utilite publique                                                                3.006e+00
landuseTerrain vague et betiment vacant                                                          1.553e+00
isPark1:neighMaizerets                                                                           3.559e-01
isPark1:neighMontcalm                                                                           -2.410e+00
isPark1:neighSaint-Jean-Baptiste                                                                -1.380e+00
isPark1:neighSaint-Roch                                                                         -2.927e+00
isPark1:neighSaint-Sacrement                                                                    -1.128e+00
isPark1:neighSaint-Sauveur                                                                      -1.139e+00
isPark1:neighVieux-Limoilou                                                                     -2.658e+00
isPark1:neighVieux-Québec/Cap-Blanc/Colline parlementaire                                       -8.969e-01
neighMaizerets:landuseCommerce de gros et entreposage                                           -6.316e-03
neighMontcalm:landuseCommerce de gros et entreposage                                             0.000e+00
neighSaint-Jean-Baptiste:landuseCommerce de gros et entreposage                                  2.640e+00
neighSaint-Roch:landuseCommerce de gros et entreposage                                           7.237e-02
neighSaint-Sacrement:landuseCommerce de gros et entreposage                                      0.000e+00
neighSaint-Sauveur:landuseCommerce de gros et entreposage                                       -5.045e-02
neighVieux-Limoilou:landuseCommerce de gros et entreposage                                       2.276e-01
neighVieux-Québec/Cap-Blanc/Colline parlementaire:landuseCommerce de gros et entreposage        -2.017e+01
neighMaizerets:landuseCommerce de vente au detail                                               -8.604e-01
neighMontcalm:landuseCommerce de vente au detail                                                -6.741e-01
neighSaint-Jean-Baptiste:landuseCommerce de vente au detail                                     -1.990e+01
neighSaint-Roch:landuseCommerce de vente au detail                                              -1.106e-01
neighSaint-Sacrement:landuseCommerce de vente au detail                                          2.441e-01
neighSaint-Sauveur:landuseCommerce de vente au detail                                           -1.947e-01
neighVieux-Limoilou:landuseCommerce de vente au detail                                          -3.470e-01
neighVieux-Québec/Cap-Blanc/Colline parlementaire:landuseCommerce de vente au detail            -1.206e+00
neighMaizerets:landuseIndustriel                                                                 1.087e+00
neighMontcalm:landuseIndustriel                                                                  0.000e+00
neighSaint-Jean-Baptiste:landuseIndustriel                                                       2.355e+00
neighSaint-Roch:landuseIndustriel                                                               -2.914e-01
neighSaint-Sacrement:landuseIndustriel                                                           1.626e+00
neighSaint-Sauveur:landuseIndustriel                                                            -1.918e+00
neighVieux-Limoilou:landuseIndustriel                                                           -6.128e-01
neighVieux-Québec/Cap-Blanc/Colline parlementaire:landuseIndustriel                              0.000e+00
neighMaizerets:landuseInstitutionnel                                                            -4.899e-01
neighMontcalm:landuseInstitutionnel                                                             -9.515e-01
neighSaint-Jean-Baptiste:landuseInstitutionnel                                                  -1.135e+00
neighSaint-Roch:landuseInstitutionnel                                                            3.917e-01
neighSaint-Sacrement:landuseInstitutionnel                                                      -7.327e-01
neighSaint-Sauveur:landuseInstitutionnel                                                         2.083e-01
neighVieux-Limoilou:landuseInstitutionnel                                                       -7.778e-01
neighVieux-Québec/Cap-Blanc/Colline parlementaire:landuseInstitutionnel                         -1.789e+00
neighMaizerets:landuseLoisir et culture                                                         -1.372e-03
neighMontcalm:landuseLoisir et culture                                                           2.240e-01
neighSaint-Jean-Baptiste:landuseLoisir et culture                                                1.585e+00
neighSaint-Roch:landuseLoisir et culture                                                         2.158e+00
neighSaint-Sacrement:landuseLoisir et culture                                                   -2.467e-01
neighSaint-Sauveur:landuseLoisir et culture                                                      4.114e-01
neighVieux-Limoilou:landuseLoisir et culture                                                     9.227e-01
neighVieux-Québec/Cap-Blanc/Colline parlementaire:landuseLoisir et culture                      -9.706e-01
neighMaizerets:landuseMixite residentielle et administration                                    -2.994e-01
neighMontcalm:landuseMixite residentielle et administration                                     -1.363e+00
neighSaint-Jean-Baptiste:landuseMixite residentielle et administration                           2.209e+01
neighSaint-Roch:landuseMixite residentielle et administration                                    6.831e-01
neighSaint-Sacrement:landuseMixite residentielle et administration                               2.133e+01
neighSaint-Sauveur:landuseMixite residentielle et administration                                -6.241e-01
neighVieux-Limoilou:landuseMixite residentielle et administration                                2.132e+01
neighVieux-Québec/Cap-Blanc/Colline parlementaire:landuseMixite residentielle et administration -1.074e+00
neighMaizerets:landuseMixite residentielle et commerciale                                        2.100e-01
neighMontcalm:landuseMixite residentielle et commerciale                                        -7.800e-01
neighSaint-Jean-Baptiste:landuseMixite residentielle et commerciale                              1.342e+00
neighSaint-Roch:landuseMixite residentielle et commerciale                                      -3.471e-01
neighSaint-Sacrement:landuseMixite residentielle et commerciale                                 -3.037e-01
neighSaint-Sauveur:landuseMixite residentielle et commerciale                                   -1.733e+00
neighVieux-Limoilou:landuseMixite residentielle et commerciale                                  -3.717e-01
neighVieux-Québec/Cap-Blanc/Colline parlementaire:landuseMixite residentielle et commerciale     2.932e-01
neighMaizerets:landuseParc et espace vert                                                       -1.838e+00
neighMontcalm:landuseParc et espace vert                                                        -2.671e+00
neighSaint-Jean-Baptiste:landuseParc et espace vert                                             -1.047e+00
neighSaint-Roch:landuseParc et espace vert                                                      -1.589e-01
neighSaint-Sacrement:landuseParc et espace vert                                                 -2.806e+00
neighSaint-Sauveur:landuseParc et espace vert                                                   -2.247e+00
neighVieux-Limoilou:landuseParc et espace vert                                                  -1.275e+00
neighVieux-Québec/Cap-Blanc/Colline parlementaire:landuseParc et espace vert                    -3.020e+00
neighMaizerets:landuseReseau et equipement de transport                                         -2.224e+00
neighMontcalm:landuseReseau et equipement de transport                                          -2.432e+01
neighSaint-Jean-Baptiste:landuseReseau et equipement de transport                               -1.334e+00
neighSaint-Roch:landuseReseau et equipement de transport                                        -1.418e+00
neighSaint-Sacrement:landuseReseau et equipement de transport                                   -2.386e+01
neighSaint-Sauveur:landuseReseau et equipement de transport                                     -5.128e-01
neighVieux-Limoilou:landuseReseau et equipement de transport                                    -1.950e+00
neighVieux-Québec/Cap-Blanc/Colline parlementaire:landuseReseau et equipement de transport      -2.995e+00
neighMaizerets:landuseResidentiel faible densite                                                -4.865e-01
neighMontcalm:landuseResidentiel faible densite                                                 -1.325e+00
neighSaint-Jean-Baptiste:landuseResidentiel faible densite                                       1.420e-01
neighSaint-Roch:landuseResidentiel faible densite                                                2.830e-01
neighSaint-Sacrement:landuseResidentiel faible densite                                          -4.068e-01
neighSaint-Sauveur:landuseResidentiel faible densite                                            -1.297e+00
neighVieux-Limoilou:landuseResidentiel faible densite                                           -1.084e+00
neighVieux-Québec/Cap-Blanc/Colline parlementaire:landuseResidentiel faible densite             -1.026e+00
neighMaizerets:landuseResidentiel haute densite                                                 -2.903e-01
neighMontcalm:landuseResidentiel haute densite                                                  -1.134e+00
neighSaint-Jean-Baptiste:landuseResidentiel haute densite                                        3.606e-01
neighSaint-Roch:landuseResidentiel haute densite                                                -1.324e-03
neighSaint-Sacrement:landuseResidentiel haute densite                                           -4.326e-01
neighSaint-Sauveur:landuseResidentiel haute densite                                             -8.935e-01
neighVieux-Limoilou:landuseResidentiel haute densite                                            -9.323e-01
neighVieux-Québec/Cap-Blanc/Colline parlementaire:landuseResidentiel haute densite              -1.267e+00
neighMaizerets:landuseResidentiel moyenne densite                                               -8.096e-02
neighMontcalm:landuseResidentiel moyenne densite                                                -1.186e+00
neighSaint-Jean-Baptiste:landuseResidentiel moyenne densite                                      2.611e-01
neighSaint-Roch:landuseResidentiel moyenne densite                                               2.738e-01
neighSaint-Sacrement:landuseResidentiel moyenne densite                                         -2.660e-01
neighSaint-Sauveur:landuseResidentiel moyenne densite                                           -1.064e+00
neighVieux-Limoilou:landuseResidentiel moyenne densite                                          -7.126e-01
neighVieux-Québec/Cap-Blanc/Colline parlementaire:landuseResidentiel moyenne densite            -4.642e-01
neighMaizerets:landuseService d'utilite publique                                                -1.776e+00
neighMontcalm:landuseService d'utilite publique                                                  0.000e+00
neighSaint-Jean-Baptiste:landuseService d'utilite publique                                      -2.352e+01
neighSaint-Roch:landuseService d'utilite publique                                                0.000e+00
neighSaint-Sacrement:landuseService d'utilite publique                                          -3.596e+00
neighSaint-Sauveur:landuseService d'utilite publique                                            -1.954e+00
neighVieux-Limoilou:landuseService d'utilite publique                                           -1.445e+00
neighVieux-Québec/Cap-Blanc/Colline parlementaire:landuseService d'utilite publique             -3.198e+00
neighMaizerets:landuseTerrain vague et betiment vacant                                           4.481e-01
neighMontcalm:landuseTerrain vague et betiment vacant                                           -1.931e+00
neighSaint-Jean-Baptiste:landuseTerrain vague et betiment vacant                                 4.023e-01
neighSaint-Roch:landuseTerrain vague et betiment vacant                                         -7.806e-02
neighSaint-Sacrement:landuseTerrain vague et betiment vacant                                    -7.267e-01
neighSaint-Sauveur:landuseTerrain vague et betiment vacant                                      -8.263e-01
neighVieux-Limoilou:landuseTerrain vague et betiment vacant                                     -8.793e-01
neighVieux-Québec/Cap-Blanc/Colline parlementaire:landuseTerrain vague et betiment vacant       -8.811e-01
                                                                                                Std. Error
(Intercept)                                                                                      3.880e-01
isCliffTRUE                                                                                      6.999e-02
isBankTRUE                                                                                       1.008e-01
isPark1                                                                                          2.250e-01
neighMaizerets                                                                                   5.177e-01
neighMontcalm                                                                                    4.260e-01
neighSaint-Jean-Baptiste                                                                         7.041e-01
neighSaint-Roch                                                                                  5.701e-01
neighSaint-Sacrement                                                                             5.805e-01
neighSaint-Sauveur                                                                               4.242e-01
neighVieux-Limoilou                                                                              6.069e-01
neighVieux-Québec/Cap-Blanc/Colline parlementaire                                                4.042e-01
landuseCommerce de gros et entreposage                                                           7.018e-01
landuseCommerce de vente au detail                                                               5.466e-01
landuseIndustriel                                                                                4.443e-01
landuseInstitutionnel                                                                            4.323e-01
landuseLoisir et culture                                                                         4.095e-01
landuseMixite residentielle et administration                                                    3.973e+04
landuseMixite residentielle et commerciale                                                       1.084e+00
landuseParc et espace vert                                                                       5.092e-01
landuseReseau et equipement de transport                                                         4.107e-01
landuseResidentiel faible densite                                                                3.927e-01
landuseResidentiel haute densite                                                                 3.985e-01
landuseResidentiel moyenne densite                                                               3.997e-01
landuseService d'utilite publique                                                                5.763e-01
landuseTerrain vague et betiment vacant                                                          5.122e-01
isPark1:neighMaizerets                                                                           3.657e-01
isPark1:neighMontcalm                                                                            2.812e-01
isPark1:neighSaint-Jean-Baptiste                                                                 4.741e-01
isPark1:neighSaint-Roch                                                                          2.872e-01
isPark1:neighSaint-Sacrement                                                                     3.463e-01
isPark1:neighSaint-Sauveur                                                                       2.471e-01
isPark1:neighVieux-Limoilou                                                                      2.939e-01
isPark1:neighVieux-Québec/Cap-Blanc/Colline parlementaire                                        2.481e-01
neighMaizerets:landuseCommerce de gros et entreposage                                            9.322e-01
neighMontcalm:landuseCommerce de gros et entreposage                                             0.000e+00
neighSaint-Jean-Baptiste:landuseCommerce de gros et entreposage                                  1.651e+00
neighSaint-Roch:landuseCommerce de gros et entreposage                                           1.297e+00
neighSaint-Sacrement:landuseCommerce de gros et entreposage                                      0.000e+00
neighSaint-Sauveur:landuseCommerce de gros et entreposage                                        7.603e-01
neighVieux-Limoilou:landuseCommerce de gros et entreposage                                       1.115e+00
neighVieux-Québec/Cap-Blanc/Colline parlementaire:landuseCommerce de gros et entreposage         1.256e+04
neighMaizerets:landuseCommerce de vente au detail                                                6.932e-01
neighMontcalm:landuseCommerce de vente au detail                                                 7.401e-01
neighSaint-Jean-Baptiste:landuseCommerce de vente au detail                                      1.004e+04
neighSaint-Roch:landuseCommerce de vente au detail                                               9.916e-01
neighSaint-Sacrement:landuseCommerce de vente au detail                                          8.755e-01
neighSaint-Sauveur:landuseCommerce de vente au detail                                            5.825e-01
neighVieux-Limoilou:landuseCommerce de vente au detail                                           8.057e-01
neighVieux-Québec/Cap-Blanc/Colline parlementaire:landuseCommerce de vente au detail             6.983e-01
neighMaizerets:landuseIndustriel                                                                 5.698e-01
neighMontcalm:landuseIndustriel                                                                  0.000e+00
neighSaint-Jean-Baptiste:landuseIndustriel                                                       1.432e+00
neighSaint-Roch:landuseIndustriel                                                                9.425e-01
neighSaint-Sacrement:landuseIndustriel                                                           1.176e+00
neighSaint-Sauveur:landuseIndustriel                                                             5.578e-01
neighVieux-Limoilou:landuseIndustriel                                                            6.625e-01
neighVieux-Québec/Cap-Blanc/Colline parlementaire:landuseIndustriel                              0.000e+00
neighMaizerets:landuseInstitutionnel                                                             5.745e-01
neighMontcalm:landuseInstitutionnel                                                              4.883e-01
neighSaint-Jean-Baptiste:landuseInstitutionnel                                                   1.026e+00
neighSaint-Roch:landuseInstitutionnel                                                            6.533e-01
neighSaint-Sacrement:landuseInstitutionnel                                                       6.174e-01
neighSaint-Sauveur:landuseInstitutionnel                                                         4.723e-01
neighVieux-Limoilou:landuseInstitutionnel                                                        6.536e-01
neighVieux-Québec/Cap-Blanc/Colline parlementaire:landuseInstitutionnel                          4.663e-01
neighMaizerets:landuseLoisir et culture                                                          6.076e-01
neighMontcalm:landuseLoisir et culture                                                           4.800e-01
neighSaint-Jean-Baptiste:landuseLoisir et culture                                                7.843e-01
neighSaint-Roch:landuseLoisir et culture                                                         6.184e-01
neighSaint-Sacrement:landuseLoisir et culture                                                    7.768e-01
neighSaint-Sauveur:landuseLoisir et culture                                                      4.863e-01
neighVieux-Limoilou:landuseLoisir et culture                                                     6.692e-01
neighVieux-Québec/Cap-Blanc/Colline parlementaire:landuseLoisir et culture                       4.592e-01
neighMaizerets:landuseMixite residentielle et administration                                     5.617e+04
neighMontcalm:landuseMixite residentielle et administration                                      5.618e+04
neighSaint-Jean-Baptiste:landuseMixite residentielle et administration                           3.973e+04
neighSaint-Roch:landuseMixite residentielle et administration                                    4.199e+04
neighSaint-Sacrement:landuseMixite residentielle et administration                               3.973e+04
neighSaint-Sauveur:landuseMixite residentielle et administration                                 5.617e+04
neighVieux-Limoilou:landuseMixite residentielle et administration                                3.973e+04
neighVieux-Québec/Cap-Blanc/Colline parlementaire:landuseMixite residentielle et administration  4.262e+04
neighMaizerets:landuseMixite residentielle et commerciale                                        1.528e+00
neighMontcalm:landuseMixite residentielle et commerciale                                         1.316e+00
neighSaint-Jean-Baptiste:landuseMixite residentielle et commerciale                              1.374e+00
neighSaint-Roch:landuseMixite residentielle et commerciale                                       1.544e+00
neighSaint-Sacrement:landuseMixite residentielle et commerciale                                  1.552e+00
neighSaint-Sauveur:landuseMixite residentielle et commerciale                                    1.488e+00
neighVieux-Limoilou:landuseMixite residentielle et commerciale                                   1.318e+00
neighVieux-Québec/Cap-Blanc/Colline parlementaire:landuseMixite residentielle et commerciale     1.121e+00
neighMaizerets:landuseParc et espace vert                                                        7.001e-01
neighMontcalm:landuseParc et espace vert                                                         5.636e-01
neighSaint-Jean-Baptiste:landuseParc et espace vert                                              8.846e-01
neighSaint-Roch:landuseParc et espace vert                                                       6.785e-01
neighSaint-Sacrement:landuseParc et espace vert                                                  7.357e-01
neighSaint-Sauveur:landuseParc et espace vert                                                    5.479e-01
neighVieux-Limoilou:landuseParc et espace vert                                                   7.087e-01
neighVieux-Québec/Cap-Blanc/Colline parlementaire:landuseParc et espace vert                     5.271e-01
neighMaizerets:landuseReseau et equipement de transport                                          5.453e-01
neighMontcalm:landuseReseau et equipement de transport                                           3.548e+04
neighSaint-Jean-Baptiste:landuseReseau et equipement de transport                                1.030e+00
neighSaint-Roch:landuseReseau et equipement de transport                                         6.723e-01
neighSaint-Sacrement:landuseReseau et equipement de transport                                    1.124e+04
neighSaint-Sauveur:landuseReseau et equipement de transport                                      4.750e-01
neighVieux-Limoilou:landuseReseau et equipement de transport                                     6.680e-01
neighVieux-Québec/Cap-Blanc/Colline parlementaire:landuseReseau et equipement de transport       4.412e-01
neighMaizerets:landuseResidentiel faible densite                                                 5.276e-01
neighMontcalm:landuseResidentiel faible densite                                                  4.436e-01
neighSaint-Jean-Baptiste:landuseResidentiel faible densite                                       7.801e-01
neighSaint-Roch:landuseResidentiel faible densite                                                6.958e-01
neighSaint-Sacrement:landuseResidentiel faible densite                                           5.881e-01
neighSaint-Sauveur:landuseResidentiel faible densite                                             4.495e-01
neighVieux-Limoilou:landuseResidentiel faible densite                                            6.341e-01
neighVieux-Québec/Cap-Blanc/Colline parlementaire:landuseResidentiel faible densite              4.297e-01
neighMaizerets:landuseResidentiel haute densite                                                  5.360e-01
neighMontcalm:landuseResidentiel haute densite                                                   4.447e-01
neighSaint-Jean-Baptiste:landuseResidentiel haute densite                                        7.208e-01
neighSaint-Roch:landuseResidentiel haute densite                                                 6.005e-01
neighSaint-Sacrement:landuseResidentiel haute densite                                            5.963e-01
neighSaint-Sauveur:landuseResidentiel haute densite                                              4.444e-01
neighVieux-Limoilou:landuseResidentiel haute densite                                             6.224e-01
neighVieux-Québec/Cap-Blanc/Colline parlementaire:landuseResidentiel haute densite               4.635e-01
neighMaizerets:landuseResidentiel moyenne densite                                                5.321e-01
neighMontcalm:landuseResidentiel moyenne densite                                                 4.493e-01
neighSaint-Jean-Baptiste:landuseResidentiel moyenne densite                                      7.763e-01
neighSaint-Roch:landuseResidentiel moyenne densite                                               6.123e-01
neighSaint-Sacrement:landuseResidentiel moyenne densite                                          5.971e-01
neighSaint-Sauveur:landuseResidentiel moyenne densite                                            4.514e-01
neighVieux-Limoilou:landuseResidentiel moyenne densite                                           6.272e-01
neighVieux-Québec/Cap-Blanc/Colline parlementaire:landuseResidentiel moyenne densite             4.919e-01
neighMaizerets:landuseService d'utilite publique                                                 6.778e-01
neighMontcalm:landuseService d'utilite publique                                                  0.000e+00
neighSaint-Jean-Baptiste:landuseService d'utilite publique                                       2.634e+04
neighSaint-Roch:landuseService d'utilite publique                                                0.000e+00
neighSaint-Sacrement:landuseService d'utilite publique                                           1.259e+00
neighSaint-Sauveur:landuseService d'utilite publique                                             6.495e-01
neighVieux-Limoilou:landuseService d'utilite publique                                            9.652e-01
neighVieux-Québec/Cap-Blanc/Colline parlementaire:landuseService d'utilite publique              6.791e-01
neighMaizerets:landuseTerrain vague et betiment vacant                                           6.266e-01
neighMontcalm:landuseTerrain vague et betiment vacant                                            8.926e-01
neighSaint-Jean-Baptiste:landuseTerrain vague et betiment vacant                                 9.019e-01
neighSaint-Roch:landuseTerrain vague et betiment vacant                                          7.117e-01
neighSaint-Sacrement:landuseTerrain vague et betiment vacant                                     7.089e-01
neighSaint-Sauveur:landuseTerrain vague et betiment vacant                                       5.507e-01
neighVieux-Limoilou:landuseTerrain vague et betiment vacant                                      7.359e-01
neighVieux-Québec/Cap-Blanc/Colline parlementaire:landuseTerrain vague et betiment vacant        5.450e-01
                                                                                                z value
(Intercept)                                                                                      -8.136
isCliffTRUE                                                                                      29.255
isBankTRUE                                                                                        2.408
isPark1                                                                                          10.282
neighMaizerets                                                                                    0.549
neighMontcalm                                                                                     3.435
neighSaint-Jean-Baptiste                                                                         -0.570
neighSaint-Roch                                                                                  -1.075
neighSaint-Sacrement                                                                              1.503
neighSaint-Sauveur                                                                                1.592
neighVieux-Limoilou                                                                               1.016
neighVieux-Québec/Cap-Blanc/Colline parlementaire                                                 1.503
landuseCommerce de gros et entreposage                                                           -0.855
landuseCommerce de vente au detail                                                               -0.329
landuseIndustriel                                                                                 1.118
landuseInstitutionnel                                                                             2.694
landuseLoisir et culture                                                                          1.249
landuseMixite residentielle et administration                                                    -0.001
landuseMixite residentielle et commerciale                                                       -0.588
landuseParc et espace vert                                                                        6.896
landuseReseau et equipement de transport                                                          5.899
landuseResidentiel faible densite                                                                 5.467
landuseResidentiel haute densite                                                                  2.425
landuseResidentiel moyenne densite                                                                3.507
landuseService d'utilite publique                                                                 5.215
landuseTerrain vague et betiment vacant                                                           3.032
isPark1:neighMaizerets                                                                            0.973
isPark1:neighMontcalm                                                                            -8.570
isPark1:neighSaint-Jean-Baptiste                                                                 -2.910
isPark1:neighSaint-Roch                                                                         -10.191
isPark1:neighSaint-Sacrement                                                                     -3.258
isPark1:neighSaint-Sauveur                                                                       -4.609
isPark1:neighVieux-Limoilou                                                                      -9.046
isPark1:neighVieux-Québec/Cap-Blanc/Colline parlementaire                                        -3.615
neighMaizerets:landuseCommerce de gros et entreposage                                            -0.007
neighMontcalm:landuseCommerce de gros et entreposage                                                 NA
neighSaint-Jean-Baptiste:landuseCommerce de gros et entreposage                                   1.599
neighSaint-Roch:landuseCommerce de gros et entreposage                                            0.056
neighSaint-Sacrement:landuseCommerce de gros et entreposage                                          NA
neighSaint-Sauveur:landuseCommerce de gros et entreposage                                        -0.066
neighVieux-Limoilou:landuseCommerce de gros et entreposage                                        0.204
neighVieux-Québec/Cap-Blanc/Colline parlementaire:landuseCommerce de gros et entreposage         -0.002
neighMaizerets:landuseCommerce de vente au detail                                                -1.241
neighMontcalm:landuseCommerce de vente au detail                                                 -0.911
neighSaint-Jean-Baptiste:landuseCommerce de vente au detail                                      -0.002
neighSaint-Roch:landuseCommerce de vente au detail                                               -0.111
neighSaint-Sacrement:landuseCommerce de vente au detail                                           0.279
neighSaint-Sauveur:landuseCommerce de vente au detail                                            -0.334
neighVieux-Limoilou:landuseCommerce de vente au detail                                           -0.431
neighVieux-Québec/Cap-Blanc/Colline parlementaire:landuseCommerce de vente au detail             -1.727
neighMaizerets:landuseIndustriel                                                                  1.908
neighMontcalm:landuseIndustriel                                                                      NA
neighSaint-Jean-Baptiste:landuseIndustriel                                                        1.644
neighSaint-Roch:landuseIndustriel                                                                -0.309
neighSaint-Sacrement:landuseIndustriel                                                            1.382
neighSaint-Sauveur:landuseIndustriel                                                             -3.439
neighVieux-Limoilou:landuseIndustriel                                                            -0.925
neighVieux-Québec/Cap-Blanc/Colline parlementaire:landuseIndustriel                                  NA
neighMaizerets:landuseInstitutionnel                                                             -0.853
neighMontcalm:landuseInstitutionnel                                                              -1.949
neighSaint-Jean-Baptiste:landuseInstitutionnel                                                   -1.107
neighSaint-Roch:landuseInstitutionnel                                                             0.600
neighSaint-Sacrement:landuseInstitutionnel                                                       -1.187
neighSaint-Sauveur:landuseInstitutionnel                                                          0.441
neighVieux-Limoilou:landuseInstitutionnel                                                        -1.190
neighVieux-Québec/Cap-Blanc/Colline parlementaire:landuseInstitutionnel                          -3.836
neighMaizerets:landuseLoisir et culture                                                          -0.002
neighMontcalm:landuseLoisir et culture                                                            0.467
neighSaint-Jean-Baptiste:landuseLoisir et culture                                                 2.021
neighSaint-Roch:landuseLoisir et culture                                                          3.490
neighSaint-Sacrement:landuseLoisir et culture                                                    -0.318
neighSaint-Sauveur:landuseLoisir et culture                                                       0.846
neighVieux-Limoilou:landuseLoisir et culture                                                      1.379
neighVieux-Québec/Cap-Blanc/Colline parlementaire:landuseLoisir et culture                       -2.113
neighMaizerets:landuseMixite residentielle et administration                                      0.000
neighMontcalm:landuseMixite residentielle et administration                                       0.000
neighSaint-Jean-Baptiste:landuseMixite residentielle et administration                            0.001
neighSaint-Roch:landuseMixite residentielle et administration                                     0.000
neighSaint-Sacrement:landuseMixite residentielle et administration                                0.001
neighSaint-Sauveur:landuseMixite residentielle et administration                                  0.000
neighVieux-Limoilou:landuseMixite residentielle et administration                                 0.001
neighVieux-Québec/Cap-Blanc/Colline parlementaire:landuseMixite residentielle et administration   0.000
neighMaizerets:landuseMixite residentielle et commerciale                                         0.137
neighMontcalm:landuseMixite residentielle et commerciale                                         -0.593
neighSaint-Jean-Baptiste:landuseMixite residentielle et commerciale                               0.977
neighSaint-Roch:landuseMixite residentielle et commerciale                                       -0.225
neighSaint-Sacrement:landuseMixite residentielle et commerciale                                  -0.196
neighSaint-Sauveur:landuseMixite residentielle et commerciale                                    -1.164
neighVieux-Limoilou:landuseMixite residentielle et commerciale                                   -0.282
neighVieux-Québec/Cap-Blanc/Colline parlementaire:landuseMixite residentielle et commerciale      0.261
neighMaizerets:landuseParc et espace vert                                                        -2.625
neighMontcalm:landuseParc et espace vert                                                         -4.738
neighSaint-Jean-Baptiste:landuseParc et espace vert                                              -1.183
neighSaint-Roch:landuseParc et espace vert                                                       -0.234
neighSaint-Sacrement:landuseParc et espace vert                                                  -3.815
neighSaint-Sauveur:landuseParc et espace vert                                                    -4.101
neighVieux-Limoilou:landuseParc et espace vert                                                   -1.799
neighVieux-Québec/Cap-Blanc/Colline parlementaire:landuseParc et espace vert                     -5.729
neighMaizerets:landuseReseau et equipement de transport                                          -4.079
neighMontcalm:landuseReseau et equipement de transport                                           -0.001
neighSaint-Jean-Baptiste:landuseReseau et equipement de transport                                -1.295
neighSaint-Roch:landuseReseau et equipement de transport                                         -2.109
neighSaint-Sacrement:landuseReseau et equipement de transport                                    -0.002
neighSaint-Sauveur:landuseReseau et equipement de transport                                      -1.079
neighVieux-Limoilou:landuseReseau et equipement de transport                                     -2.919
neighVieux-Québec/Cap-Blanc/Colline parlementaire:landuseReseau et equipement de transport       -6.789
neighMaizerets:landuseResidentiel faible densite                                                 -0.922
neighMontcalm:landuseResidentiel faible densite                                                  -2.987
neighSaint-Jean-Baptiste:landuseResidentiel faible densite                                        0.182
neighSaint-Roch:landuseResidentiel faible densite                                                 0.407
neighSaint-Sacrement:landuseResidentiel faible densite                                           -0.692
neighSaint-Sauveur:landuseResidentiel faible densite                                             -2.885
neighVieux-Limoilou:landuseResidentiel faible densite                                            -1.709
neighVieux-Québec/Cap-Blanc/Colline parlementaire:landuseResidentiel faible densite              -2.387
neighMaizerets:landuseResidentiel haute densite                                                  -0.542
neighMontcalm:landuseResidentiel haute densite                                                   -2.550
neighSaint-Jean-Baptiste:landuseResidentiel haute densite                                         0.500
neighSaint-Roch:landuseResidentiel haute densite                                                 -0.002
neighSaint-Sacrement:landuseResidentiel haute densite                                            -0.725
neighSaint-Sauveur:landuseResidentiel haute densite                                              -2.010
neighVieux-Limoilou:landuseResidentiel haute densite                                             -1.498
neighVieux-Québec/Cap-Blanc/Colline parlementaire:landuseResidentiel haute densite               -2.733
neighMaizerets:landuseResidentiel moyenne densite                                                -0.152
neighMontcalm:landuseResidentiel moyenne densite                                                 -2.640
neighSaint-Jean-Baptiste:landuseResidentiel moyenne densite                                       0.336
neighSaint-Roch:landuseResidentiel moyenne densite                                                0.447
neighSaint-Sacrement:landuseResidentiel moyenne densite                                          -0.445
neighSaint-Sauveur:landuseResidentiel moyenne densite                                            -2.357
neighVieux-Limoilou:landuseResidentiel moyenne densite                                           -1.136
neighVieux-Québec/Cap-Blanc/Colline parlementaire:landuseResidentiel moyenne densite             -0.944
neighMaizerets:landuseService d'utilite publique                                                 -2.620
neighMontcalm:landuseService d'utilite publique                                                      NA
neighSaint-Jean-Baptiste:landuseService d'utilite publique                                       -0.001
neighSaint-Roch:landuseService d'utilite publique                                                    NA
neighSaint-Sacrement:landuseService d'utilite publique                                           -2.856
neighSaint-Sauveur:landuseService d'utilite publique                                             -3.008
neighVieux-Limoilou:landuseService d'utilite publique                                            -1.497
neighVieux-Québec/Cap-Blanc/Colline parlementaire:landuseService d'utilite publique              -4.710
neighMaizerets:landuseTerrain vague et betiment vacant                                            0.715
neighMontcalm:landuseTerrain vague et betiment vacant                                            -2.164
neighSaint-Jean-Baptiste:landuseTerrain vague et betiment vacant                                  0.446
neighSaint-Roch:landuseTerrain vague et betiment vacant                                          -0.110
neighSaint-Sacrement:landuseTerrain vague et betiment vacant                                     -1.025
neighSaint-Sauveur:landuseTerrain vague et betiment vacant                                       -1.500
neighVieux-Limoilou:landuseTerrain vague et betiment vacant                                      -1.195
neighVieux-Québec/Cap-Blanc/Colline parlementaire:landuseTerrain vague et betiment vacant        -1.617
                                                                                                Pr(>|z|)
(Intercept)                                                                                     4.09e-16
isCliffTRUE                                                                                      < 2e-16
isBankTRUE                                                                                      0.016029
isPark1                                                                                          < 2e-16
neighMaizerets                                                                                  0.583172
neighMontcalm                                                                                   0.000592
neighSaint-Jean-Baptiste                                                                        0.568499
neighSaint-Roch                                                                                 0.282368
neighSaint-Sacrement                                                                            0.132782
neighSaint-Sauveur                                                                              0.111439
neighVieux-Limoilou                                                                             0.309462
neighVieux-Québec/Cap-Blanc/Colline parlementaire                                               0.132806
landuseCommerce de gros et entreposage                                                          0.392466
landuseCommerce de vente au detail                                                              0.742086
landuseIndustriel                                                                               0.263366
landuseInstitutionnel                                                                           0.007065
landuseLoisir et culture                                                                        0.211568
landuseMixite residentielle et administration                                                   0.999587
landuseMixite residentielle et commerciale                                                      0.556652
landuseParc et espace vert                                                                      5.35e-12
landuseReseau et equipement de transport                                                        3.66e-09
landuseResidentiel faible densite                                                               4.59e-08
landuseResidentiel haute densite                                                                0.015293
landuseResidentiel moyenne densite                                                              0.000452
landuseService d'utilite publique                                                               1.84e-07
landuseTerrain vague et betiment vacant                                                         0.002427
isPark1:neighMaizerets                                                                          0.330465
isPark1:neighMontcalm                                                                            < 2e-16
isPark1:neighSaint-Jean-Baptiste                                                                0.003613
isPark1:neighSaint-Roch                                                                          < 2e-16
isPark1:neighSaint-Sacrement                                                                    0.001121
isPark1:neighSaint-Sauveur                                                                      4.06e-06
isPark1:neighVieux-Limoilou                                                                      < 2e-16
isPark1:neighVieux-Québec/Cap-Blanc/Colline parlementaire                                       0.000301
neighMaizerets:landuseCommerce de gros et entreposage                                           0.994595
neighMontcalm:landuseCommerce de gros et entreposage                                                  NA
neighSaint-Jean-Baptiste:landuseCommerce de gros et entreposage                                 0.109847
neighSaint-Roch:landuseCommerce de gros et entreposage                                          0.955514
neighSaint-Sacrement:landuseCommerce de gros et entreposage                                           NA
neighSaint-Sauveur:landuseCommerce de gros et entreposage                                       0.947100
neighVieux-Limoilou:landuseCommerce de gros et entreposage                                      0.838299
neighVieux-Québec/Cap-Blanc/Colline parlementaire:landuseCommerce de gros et entreposage        0.998718
neighMaizerets:landuseCommerce de vente au detail                                               0.214543
neighMontcalm:landuseCommerce de vente au detail                                                0.362353
neighSaint-Jean-Baptiste:landuseCommerce de vente au detail                                     0.998418
neighSaint-Roch:landuseCommerce de vente au detail                                              0.911226
neighSaint-Sacrement:landuseCommerce de vente au detail                                         0.780421
neighSaint-Sauveur:landuseCommerce de vente au detail                                           0.738211
neighVieux-Limoilou:landuseCommerce de vente au detail                                          0.666735
neighVieux-Québec/Cap-Blanc/Colline parlementaire:landuseCommerce de vente au detail            0.084080
neighMaizerets:landuseIndustriel                                                                0.056370
neighMontcalm:landuseIndustriel                                                                       NA
neighSaint-Jean-Baptiste:landuseIndustriel                                                      0.100148
neighSaint-Roch:landuseIndustriel                                                               0.757233
neighSaint-Sacrement:landuseIndustriel                                                          0.166857
neighSaint-Sauveur:landuseIndustriel                                                            0.000584
neighVieux-Limoilou:landuseIndustriel                                                           0.354990
neighVieux-Québec/Cap-Blanc/Colline parlementaire:landuseIndustriel                                   NA
neighMaizerets:landuseInstitutionnel                                                            0.393813
neighMontcalm:landuseInstitutionnel                                                             0.051313
neighSaint-Jean-Baptiste:landuseInstitutionnel                                                  0.268360
neighSaint-Roch:landuseInstitutionnel                                                           0.548833
neighSaint-Sacrement:landuseInstitutionnel                                                      0.235335
neighSaint-Sauveur:landuseInstitutionnel                                                        0.659134
neighVieux-Limoilou:landuseInstitutionnel                                                       0.234036
neighVieux-Québec/Cap-Blanc/Colline parlementaire:landuseInstitutionnel                         0.000125
neighMaizerets:landuseLoisir et culture                                                         0.998199
neighMontcalm:landuseLoisir et culture                                                          0.640726
neighSaint-Jean-Baptiste:landuseLoisir et culture                                               0.043286
neighSaint-Roch:landuseLoisir et culture                                                        0.000484
neighSaint-Sacrement:landuseLoisir et culture                                                   0.750837
neighSaint-Sauveur:landuseLoisir et culture                                                     0.397487
neighVieux-Limoilou:landuseLoisir et culture                                                    0.167986
neighVieux-Québec/Cap-Blanc/Colline parlementaire:landuseLoisir et culture                      0.034563
neighMaizerets:landuseMixite residentielle et administration                                    0.999996
neighMontcalm:landuseMixite residentielle et administration                                     0.999981
neighSaint-Jean-Baptiste:landuseMixite residentielle et administration                          0.999556
neighSaint-Roch:landuseMixite residentielle et administration                                   0.999987
neighSaint-Sacrement:landuseMixite residentielle et administration                              0.999572
neighSaint-Sauveur:landuseMixite residentielle et administration                                0.999991
neighVieux-Limoilou:landuseMixite residentielle et administration                               0.999572
neighVieux-Québec/Cap-Blanc/Colline parlementaire:landuseMixite residentielle et administration 0.999980
neighMaizerets:landuseMixite residentielle et commerciale                                       0.890679
neighMontcalm:landuseMixite residentielle et commerciale                                        0.553407
neighSaint-Jean-Baptiste:landuseMixite residentielle et commerciale                             0.328419
neighSaint-Roch:landuseMixite residentielle et commerciale                                      0.822073
neighSaint-Sacrement:landuseMixite residentielle et commerciale                                 0.844833
neighSaint-Sauveur:landuseMixite residentielle et commerciale                                   0.244328
neighVieux-Limoilou:landuseMixite residentielle et commerciale                                  0.778022
neighVieux-Québec/Cap-Blanc/Colline parlementaire:landuseMixite residentielle et commerciale    0.793718
neighMaizerets:landuseParc et espace vert                                                       0.008662
neighMontcalm:landuseParc et espace vert                                                        2.15e-06
neighSaint-Jean-Baptiste:landuseParc et espace vert                                             0.236636
neighSaint-Roch:landuseParc et espace vert                                                      0.814815
neighSaint-Sacrement:landuseParc et espace vert                                                 0.000136
neighSaint-Sauveur:landuseParc et espace vert                                                   4.12e-05
neighVieux-Limoilou:landuseParc et espace vert                                                  0.072037
neighVieux-Québec/Cap-Blanc/Colline parlementaire:landuseParc et espace vert                    1.01e-08
neighMaizerets:landuseReseau et equipement de transport                                         4.52e-05
neighMontcalm:landuseReseau et equipement de transport                                          0.999453
neighSaint-Jean-Baptiste:landuseReseau et equipement de transport                               0.195365
neighSaint-Roch:landuseReseau et equipement de transport                                        0.034965
neighSaint-Sacrement:landuseReseau et equipement de transport                                   0.998306
neighSaint-Sauveur:landuseReseau et equipement de transport                                     0.280366
neighVieux-Limoilou:landuseReseau et equipement de transport                                    0.003511
neighVieux-Québec/Cap-Blanc/Colline parlementaire:landuseReseau et equipement de transport      1.13e-11
neighMaizerets:landuseResidentiel faible densite                                                0.356416
neighMontcalm:landuseResidentiel faible densite                                                 0.002820
neighSaint-Jean-Baptiste:landuseResidentiel faible densite                                      0.855570
neighSaint-Roch:landuseResidentiel faible densite                                               0.684228
neighSaint-Sacrement:landuseResidentiel faible densite                                          0.489118
neighSaint-Sauveur:landuseResidentiel faible densite                                            0.003920
neighVieux-Limoilou:landuseResidentiel faible densite                                           0.087463
neighVieux-Québec/Cap-Blanc/Colline parlementaire:landuseResidentiel faible densite             0.016976
neighMaizerets:landuseResidentiel haute densite                                                 0.588068
neighMontcalm:landuseResidentiel haute densite                                                  0.010775
neighSaint-Jean-Baptiste:landuseResidentiel haute densite                                       0.616941
neighSaint-Roch:landuseResidentiel haute densite                                                0.998241
neighSaint-Sacrement:landuseResidentiel haute densite                                           0.468193
neighSaint-Sauveur:landuseResidentiel haute densite                                             0.044382
neighVieux-Limoilou:landuseResidentiel haute densite                                            0.134206
neighVieux-Québec/Cap-Blanc/Colline parlementaire:landuseResidentiel haute densite              0.006285
neighMaizerets:landuseResidentiel moyenne densite                                               0.879072
neighMontcalm:landuseResidentiel moyenne densite                                                0.008280
neighSaint-Jean-Baptiste:landuseResidentiel moyenne densite                                     0.736625
neighSaint-Roch:landuseResidentiel moyenne densite                                              0.654797
neighSaint-Sacrement:landuseResidentiel moyenne densite                                         0.655960
neighSaint-Sauveur:landuseResidentiel moyenne densite                                           0.018408
neighVieux-Limoilou:landuseResidentiel moyenne densite                                          0.255952
neighVieux-Québec/Cap-Blanc/Colline parlementaire:landuseResidentiel moyenne densite            0.345305
neighMaizerets:landuseService d'utilite publique                                                0.008783
neighMontcalm:landuseService d'utilite publique                                                       NA
neighSaint-Jean-Baptiste:landuseService d'utilite publique                                      0.999287
neighSaint-Roch:landuseService d'utilite publique                                                     NA
neighSaint-Sacrement:landuseService d'utilite publique                                          0.004295
neighSaint-Sauveur:landuseService d'utilite publique                                            0.002627
neighVieux-Limoilou:landuseService d'utilite publique                                           0.134346
neighVieux-Québec/Cap-Blanc/Colline parlementaire:landuseService d'utilite publique             2.48e-06
neighMaizerets:landuseTerrain vague et betiment vacant                                          0.474494
neighMontcalm:landuseTerrain vague et betiment vacant                                           0.030500
neighSaint-Jean-Baptiste:landuseTerrain vague et betiment vacant                                0.655547
neighSaint-Roch:landuseTerrain vague et betiment vacant                                         0.912657
neighSaint-Sacrement:landuseTerrain vague et betiment vacant                                    0.305303
neighSaint-Sauveur:landuseTerrain vague et betiment vacant                                      0.133519
neighVieux-Limoilou:landuseTerrain vague et betiment vacant                                     0.232179
neighVieux-Québec/Cap-Blanc/Colline parlementaire:landuseTerrain vague et betiment vacant       0.105915
                                                                                                   
(Intercept)                                                                                     ***
isCliffTRUE                                                                                     ***
isBankTRUE                                                                                      *  
isPark1                                                                                         ***
neighMaizerets                                                                                     
neighMontcalm                                                                                   ***
neighSaint-Jean-Baptiste                                                                           
neighSaint-Roch                                                                                    
neighSaint-Sacrement                                                                               
neighSaint-Sauveur                                                                                 
neighVieux-Limoilou                                                                                
neighVieux-Québec/Cap-Blanc/Colline parlementaire                                                  
landuseCommerce de gros et entreposage                                                             
landuseCommerce de vente au detail                                                                 
landuseIndustriel                                                                                  
landuseInstitutionnel                                                                           ** 
landuseLoisir et culture                                                                           
landuseMixite residentielle et administration                                                      
landuseMixite residentielle et commerciale                                                         
landuseParc et espace vert                                                                      ***
landuseReseau et equipement de transport                                                        ***
landuseResidentiel faible densite                                                               ***
landuseResidentiel haute densite                                                                *  
landuseResidentiel moyenne densite                                                              ***
landuseService d'utilite publique                                                               ***
landuseTerrain vague et betiment vacant                                                         ** 
isPark1:neighMaizerets                                                                             
isPark1:neighMontcalm                                                                           ***
isPark1:neighSaint-Jean-Baptiste                                                                ** 
isPark1:neighSaint-Roch                                                                         ***
isPark1:neighSaint-Sacrement                                                                    ** 
isPark1:neighSaint-Sauveur                                                                      ***
isPark1:neighVieux-Limoilou                                                                     ***
isPark1:neighVieux-Québec/Cap-Blanc/Colline parlementaire                                       ***
neighMaizerets:landuseCommerce de gros et entreposage                                              
neighMontcalm:landuseCommerce de gros et entreposage                                               
neighSaint-Jean-Baptiste:landuseCommerce de gros et entreposage                                    
neighSaint-Roch:landuseCommerce de gros et entreposage                                             
neighSaint-Sacrement:landuseCommerce de gros et entreposage                                        
neighSaint-Sauveur:landuseCommerce de gros et entreposage                                          
neighVieux-Limoilou:landuseCommerce de gros et entreposage                                         
neighVieux-Québec/Cap-Blanc/Colline parlementaire:landuseCommerce de gros et entreposage           
neighMaizerets:landuseCommerce de vente au detail                                                  
neighMontcalm:landuseCommerce de vente au detail                                                   
neighSaint-Jean-Baptiste:landuseCommerce de vente au detail                                        
neighSaint-Roch:landuseCommerce de vente au detail                                                 
neighSaint-Sacrement:landuseCommerce de vente au detail                                            
neighSaint-Sauveur:landuseCommerce de vente au detail                                              
neighVieux-Limoilou:landuseCommerce de vente au detail                                             
neighVieux-Québec/Cap-Blanc/Colline parlementaire:landuseCommerce de vente au detail            .  
neighMaizerets:landuseIndustriel                                                                .  
neighMontcalm:landuseIndustriel                                                                    
neighSaint-Jean-Baptiste:landuseIndustriel                                                         
neighSaint-Roch:landuseIndustriel                                                                  
neighSaint-Sacrement:landuseIndustriel                                                             
neighSaint-Sauveur:landuseIndustriel                                                            ***
neighVieux-Limoilou:landuseIndustriel                                                              
neighVieux-Québec/Cap-Blanc/Colline parlementaire:landuseIndustriel                                
neighMaizerets:landuseInstitutionnel                                                               
neighMontcalm:landuseInstitutionnel                                                             .  
neighSaint-Jean-Baptiste:landuseInstitutionnel                                                     
neighSaint-Roch:landuseInstitutionnel                                                              
neighSaint-Sacrement:landuseInstitutionnel                                                         
neighSaint-Sauveur:landuseInstitutionnel                                                           
neighVieux-Limoilou:landuseInstitutionnel                                                          
neighVieux-Québec/Cap-Blanc/Colline parlementaire:landuseInstitutionnel                         ***
neighMaizerets:landuseLoisir et culture                                                            
neighMontcalm:landuseLoisir et culture                                                             
neighSaint-Jean-Baptiste:landuseLoisir et culture                                               *  
neighSaint-Roch:landuseLoisir et culture                                                        ***
neighSaint-Sacrement:landuseLoisir et culture                                                      
neighSaint-Sauveur:landuseLoisir et culture                                                        
neighVieux-Limoilou:landuseLoisir et culture                                                       
neighVieux-Québec/Cap-Blanc/Colline parlementaire:landuseLoisir et culture                      *  
neighMaizerets:landuseMixite residentielle et administration                                       
neighMontcalm:landuseMixite residentielle et administration                                        
neighSaint-Jean-Baptiste:landuseMixite residentielle et administration                             
neighSaint-Roch:landuseMixite residentielle et administration                                      
neighSaint-Sacrement:landuseMixite residentielle et administration                                 
neighSaint-Sauveur:landuseMixite residentielle et administration                                   
neighVieux-Limoilou:landuseMixite residentielle et administration                                  
neighVieux-Québec/Cap-Blanc/Colline parlementaire:landuseMixite residentielle et administration    
neighMaizerets:landuseMixite residentielle et commerciale                                          
neighMontcalm:landuseMixite residentielle et commerciale                                           
neighSaint-Jean-Baptiste:landuseMixite residentielle et commerciale                                
neighSaint-Roch:landuseMixite residentielle et commerciale                                         
neighSaint-Sacrement:landuseMixite residentielle et commerciale                                    
neighSaint-Sauveur:landuseMixite residentielle et commerciale                                      
neighVieux-Limoilou:landuseMixite residentielle et commerciale                                     
neighVieux-Québec/Cap-Blanc/Colline parlementaire:landuseMixite residentielle et commerciale       
neighMaizerets:landuseParc et espace vert                                                       ** 
neighMontcalm:landuseParc et espace vert                                                        ***
neighSaint-Jean-Baptiste:landuseParc et espace vert                                                
neighSaint-Roch:landuseParc et espace vert                                                         
neighSaint-Sacrement:landuseParc et espace vert                                                 ***
neighSaint-Sauveur:landuseParc et espace vert                                                   ***
neighVieux-Limoilou:landuseParc et espace vert                                                  .  
neighVieux-Québec/Cap-Blanc/Colline parlementaire:landuseParc et espace vert                    ***
neighMaizerets:landuseReseau et equipement de transport                                         ***
neighMontcalm:landuseReseau et equipement de transport                                             
neighSaint-Jean-Baptiste:landuseReseau et equipement de transport                                  
neighSaint-Roch:landuseReseau et equipement de transport                                        *  
neighSaint-Sacrement:landuseReseau et equipement de transport                                      
neighSaint-Sauveur:landuseReseau et equipement de transport                                        
neighVieux-Limoilou:landuseReseau et equipement de transport                                    ** 
neighVieux-Québec/Cap-Blanc/Colline parlementaire:landuseReseau et equipement de transport      ***
neighMaizerets:landuseResidentiel faible densite                                                   
neighMontcalm:landuseResidentiel faible densite                                                 ** 
neighSaint-Jean-Baptiste:landuseResidentiel faible densite                                         
neighSaint-Roch:landuseResidentiel faible densite                                                  
neighSaint-Sacrement:landuseResidentiel faible densite                                             
neighSaint-Sauveur:landuseResidentiel faible densite                                            ** 
neighVieux-Limoilou:landuseResidentiel faible densite                                           .  
neighVieux-Québec/Cap-Blanc/Colline parlementaire:landuseResidentiel faible densite             *  
neighMaizerets:landuseResidentiel haute densite                                                    
neighMontcalm:landuseResidentiel haute densite                                                  *  
neighSaint-Jean-Baptiste:landuseResidentiel haute densite                                          
neighSaint-Roch:landuseResidentiel haute densite                                                   
neighSaint-Sacrement:landuseResidentiel haute densite                                              
neighSaint-Sauveur:landuseResidentiel haute densite                                             *  
neighVieux-Limoilou:landuseResidentiel haute densite                                               
neighVieux-Québec/Cap-Blanc/Colline parlementaire:landuseResidentiel haute densite              ** 
neighMaizerets:landuseResidentiel moyenne densite                                                  
neighMontcalm:landuseResidentiel moyenne densite                                                ** 
neighSaint-Jean-Baptiste:landuseResidentiel moyenne densite                                        
neighSaint-Roch:landuseResidentiel moyenne densite                                                 
neighSaint-Sacrement:landuseResidentiel moyenne densite                                            
neighSaint-Sauveur:landuseResidentiel moyenne densite                                           *  
neighVieux-Limoilou:landuseResidentiel moyenne densite                                             
neighVieux-Québec/Cap-Blanc/Colline parlementaire:landuseResidentiel moyenne densite               
neighMaizerets:landuseService d'utilite publique                                                ** 
neighMontcalm:landuseService d'utilite publique                                                    
neighSaint-Jean-Baptiste:landuseService d'utilite publique                                         
neighSaint-Roch:landuseService d'utilite publique                                                  
neighSaint-Sacrement:landuseService d'utilite publique                                          ** 
neighSaint-Sauveur:landuseService d'utilite publique                                            ** 
neighVieux-Limoilou:landuseService d'utilite publique                                              
neighVieux-Québec/Cap-Blanc/Colline parlementaire:landuseService d'utilite publique             ***
neighMaizerets:landuseTerrain vague et betiment vacant                                             
neighMontcalm:landuseTerrain vague et betiment vacant                                           *  
neighSaint-Jean-Baptiste:landuseTerrain vague et betiment vacant                                   
neighSaint-Roch:landuseTerrain vague et betiment vacant                                            
neighSaint-Sacrement:landuseTerrain vague et betiment vacant                                       
neighSaint-Sauveur:landuseTerrain vague et betiment vacant                                         
neighVieux-Limoilou:landuseTerrain vague et betiment vacant                                        
neighVieux-Québec/Cap-Blanc/Colline parlementaire:landuseTerrain vague et betiment vacant          
---
Signif. codes:  0 ‘***’ 0.001 ‘**’ 0.01 ‘*’ 0.05 ‘.’ 0.1 ‘ ’ 1

Approximate significance of smooth terms:
              edf Ref.df Chi.sq  p-value    
s(popPerHa) 7.221  8.157  80.33 5.82e-14 ***
---
Signif. codes:  0 ‘***’ 0.001 ‘**’ 0.01 ‘*’ 0.05 ‘.’ 0.1 ‘ ’ 1

Rank: 149/155
R-sq.(adj) =  0.166   Deviance explained = 16.7%
UBRE = -0.21793  Scale est. = 1         n = 46518
[1] "Lairet"                                      
[2] "Maizerets"                                   
[3] "Montcalm"                                    
[4] "Saint-Jean-Baptiste"                         
[5] "Saint-Roch"                                  
[6] "Saint-Sacrement"                             
[7] "Saint-Sauveur"                               
[8] "Vieux-Limoilou"                              
[9] "Vieux-Québec/Cap-Blanc/Colline parlementaire"
 [1] "Administration et service"             
 [2] "Commerce de gros et entreposage"       
 [3] "Commerce de vente au detail"           
 [4] "Industriel"                            
 [5] "Institutionnel"                        
 [6] "Loisir et culture"                     
 [7] "Mixite residentielle et administration"
 [8] "Mixite residentielle et commerciale"   
 [9] "Parc et espace vert"                   
[10] "Reseau et equipement de transport"     
[11] "Residentiel faible densite"            
[12] "Residentiel haute densite"             
[13] "Residentiel moyenne densite"           
[14] "Service d'utilite publique"            
[15] "Terrain vague et betiment vacant"      
[16] "Unknown landuse"                       
